lab2/P3/testbench.vcd
$date
	Thu Mar 12 13:15:42 2026
$end
$version
	Icarus Verilog
$end
$timescale
	1ps
$end
$scope module part3_TB $end
$var wire 2 ! output1 [1:0] $end
$var reg 4 " count [3:0] $end
$var reg 2 # input1 [1:0] $end
$var reg 2 $ input2 [1:0] $end
$var reg 2 % input3 [1:0] $end
$var reg 2 & input4 [1:0] $end
$var reg 2 ' select [1:0] $end
$scope module instantiate_mux4_2bit $end
$var wire 2 ( s [1:0] $end
$var wire 2 ) u [1:0] $end
$var wire 2 * v [1:0] $end
$var wire 2 + w [1:0] $end
$var wire 2 , x [1:0] $end
$var wire 2 - m [1:0] $end
$scope module mux1 $end
$var wire 2 . s [1:0] $end
$var wire 1 / u $end
$var wire 1 0 v $end
$var wire 1 1 w $end
$var wire 1 2 x $end
$var wire 1 3 t2 $end
$var wire 1 4 t1 $end
$var wire 1 5 m $end
$scope module mux1 $end
$var wire 1 4 m $end
$var wire 1 6 s $end
$var wire 1 / x $end
$var wire 1 0 y $end
$upscope $end
$scope module mux2 $end
$var wire 1 3 m $end
$var wire 1 7 s $end
$var wire 1 1 x $end
$var wire 1 2 y $end
$upscope $end
$scope module mux3 $end
$var wire 1 5 m $end
$var wire 1 8 s $end
$var wire 1 4 x $end
$var wire 1 3 y $end
$upscope $end
$upscope $end
$scope module mux2 $end
$var wire 2 9 s [1:0] $end
$var wire 1 : u $end
$var wire 1 ; v $end
$var wire 1 < w $end
$var wire 1 = x $end
$var wire 1 > t2 $end
$var wire 1 ? t1 $end
$var wire 1 @ m $end
$scope module mux1 $end
$var wire 1 ? m $end
$var wire 1 A s $end
$var wire 1 : x $end
$var wire 1 ; y $end
$upscope $end
$scope module mux2 $end
$var wire 1 > m $end
$var wire 1 B s $end
$var wire 1 < x $end
$var wire 1 = y $end
$upscope $end
$scope module mux3 $end
$var wire 1 @ m $end
$var wire 1 C s $end
$var wire 1 ? x $end
$var wire 1 > y $end
$upscope $end
$upscope $end
$upscope $end
$upscope $end
$enddefinitions $end
$comment Show the parameter values. $end
$dumpall
$end
#0
$dumpvars
0C
0B
0A
0@
0?
0>
0=
0<
0;
0:
b0 9
08
07
06
15
14
03
02
01
00
1/
b0 .
b1 -
b0 ,
b0 +
b0 *
b1 )
b0 (
b0 '
b0 &
b0 %
b0 $
b1 #
b0 "
b1 !
$end
#50000
b0 !
b0 -
05
04
16
17
1A
1B
b1 '
b1 (
b1 .
b1 9
b1 "
#100000
14
06
07
18
0A
0B
1C
b10 '
b10 (
b10 .
b10 9
b10 "
#150000
04
16
17
1A
1B
b11 '
b11 (
b11 .
b11 9
b11 "
#200000
06
07
08
0A
0B
0C
10
0/
b0 '
b0 (
b0 .
b0 9
b1 $
b1 *
b0 #
b0 )
b100 "
#250000
b1 !
b1 -
15
14
16
17
1A
1B
b1 '
b1 (
b1 .
b1 9
b101 "
#300000
b0 !
b0 -
05
04
06
07
18
0A
0B
1C
b10 '
b10 (
b10 .
b10 9
b110 "
#350000
14
16
17
1A
1B
b11 '
b11 (
b11 .
b11 9
b111 "
#400000
b1 !
b1 -
15
08
0C
1<
b1 '
b1 (
b1 .
b1 9
b10 %
b10 +
b1000 "
#450000
1@
b10 !
b10 -
05
1>
04
06
07
18
0A
0B
1C
b10 '
b10 (
b10 .
b10 9
b1001 "
#500000
15
0>
14
b11 !
b11 -
1@
1?
16
17
08
1A
1B
0C
1;
b1 '
b1 (
b1 .
b1 9
b11 $
b11 *
b1010 "
#550000
05
b0 !
b0 -
0@
04
0?
06
07
0A
0B
0<
00
0;
b0 '
b0 (
b0 .
b0 9
b0 %
b0 +
b0 $
b0 *
b1011 "
#600000
b1100 "
